id,name,model_id:id,group_id:id,perm_read,perm_write,perm_create,perm_unlink

access_gle_read_group_analytic_metier,access.gle.adv.analytic.metier.read,gle_adv.model_gle_adv_analytic_metier,gle_read_group,1,0,0,0

access_gle_read_group_sale_order_annotation,access.gle.adv.sale.order.annotation.read,gle_adv.model_gle_adv_sale_order_annotation,gle_read_group,1,0,0,0

access_gle_read_group_ca_commision,access.gle.adv.ca.commision.read,gle_adv.model_gle_adv_ca_commision,gle_read_group,1,1,0,0
access_group_ca_commision_gle_sale,access.gle.adv.ca.commision.gle.sale,gle_adv.model_gle_adv_ca_commision,gle_sales_group_user,1,1,1,1
access_group_ca_commision_gle_sale_dgm620,access.gle.adv.ca.commision.gle.sale,gle_adv.model_gle_adv_ca_commision,dgm620_group,1,1,1,1
access_group_ca_commision_gle_sale_cg,access.gle.adv.ca.commision.gle.sale,gle_adv.model_gle_adv_ca_commision,cg_group,1,1,1,1
access_group_regie_externe_gle_sale_cg,access.regie.externe.ca.commision.gle.sale,gle_adv.model_gle_adv_ca_commision,sde630_group,1,1,1,1



access_gle_read_group_department,access.gfi.state.fr.department.read,gfi_state_fr.model_department,gle_read_group,1,0,0,0

access_gle_read_group_function,access.gle.crm.function.read,gle_crm.model_gle_crm_function,gle_read_group,1,0,0,0
access_function_gle_sale_manager,access.gle.crm.function.sale.manager,gle_crm.model_gle_crm_function,gle_sales_group_manager,1,1,1,1

access_gle_read_group_note_credit_safe,access.gle.crm.notecredit.safe.read,gle_crm.model_gle_crm_note_credit_safe,gle_read_group,1,0,0,0

access_gle_read_group_crmleadreportingprevisional,access.gle.crm.crmleadreportingprevisional.read,gle_crm.model_gle_crm_crmleadreportingprevisional,gle_read_group,1,1,0,0

access_gle_read_group_sector,access.gle.crm.sector.read,gle_crm.model_gle_crm_sector,gle_read_group,1,0,0,0
access_sector_gle_sale_manager,access.gle.crm.sector.sale.manager,gle_crm.model_gle_crm_sector,gle_sales_group_manager,1,1,1,1

access_gle_read_group_type_contact,access.gle.crm.type.contact.read,gle_crm.model_gle_crm_type_contact,gle_read_group,1,0,0,0
access_type_contact_gle_sale_manager,access.gle.crm.type.contact.sale.manager,gle_crm.model_gle_crm_type_contact,gle_sales_group_manager,1,1,1,1

access_gle_read_group_key_words,access.gle.crm.key.words.read,gle_crm.model_gle_crm_key_words,gle_read_group,1,0,0,0
access_key_words_gle_sale_manager,access.gle.crm.key.words.sale.manager.chief,gle_crm.model_gle_crm_key_words,gle_sales_group_manager,1,1,1,1

access_gle_read_group_centers_of_interest,access.gle.crm.centers.of.interest.read,gle_crm.model_gle_crm_centers_of_interest,gle_read_group,1,0,0,0
access_centers_of_interest_gle_sale_manager,access.gle.crm.centers.of.interest.sale.manager,gle_crm.model_gle_crm_centers_of_interest,gle_sales_group_manager,1,1,1,1

access_gle_read_group_type_company,access.gle.crm.type.company.read,gle_crm.model_gle_crm_type_company,gle_read_group,1,0,0,0
access_type_company_gle_sale_manager,access.gle.crm.type.company.gle.sale.manager,gle_crm.model_gle_crm_type_company,gle_sales_group_manager,1,1,1,1

access_gle_read_group_commercial_allocation_crm,access.gle.crm.commercial.allocation.crm.read,gle_crm.model_gle_crm_commercial_allocation_crm,gle_read_group,1,0,0,0
access_commercial_allocation_crm_gle_sale,access.gle.crm.commercial.allocation.crm.gle.sale,gle_crm.model_gle_crm_commercial_allocation_crm,gle_sales_group_user,1,1,1,1

access_gle_read_group_line_product_workshop,access.gle.crm.line.product.workshop.read,gle_crm.model_gle_crm_line_product_workshop,gle_read_group,1,0,0,0
access_line_product_workshop_gle_sale,access.gle.crm.line.product.workshop.gle.sale,gle_crm.model_gle_crm_line_product_workshop,gle_sales_group_user,1,1,1,1

access_gle_read_group_line_product_marketing_read,access.gle.crm.line.product.marketing.read,gle_crm.model_gle_crm_line_product_marketing,gle_read_group,1,0,0,0
access_line_product_marketing_gle_sale,access.gle.crm.line.product.marketing.gle.sale,gle_crm.model_gle_crm_line_product_marketing,gle_sales_group_user,1,1,1,1

access_gle_read_group_line_articles,access.gle.crm.line.articles.read,gle_crm.model_gle_crm_line_articles,gle_read_group,1,0,0,0
access_line_articles_gle_sale,access.gle.crm.line.articles.gle.sale,gle_crm.model_gle_crm_line_articles,gle_sales_group_user,1,1,1,1

access_gle_read_group_ca_current_year,access.gle.crm.ca.current.year.read,gle_crm.model_gle_crm_ca_current_year,gle_read_group,1,1,1,0
access_ca_current_year_gle_sale,access.gle.crm.ca.current.year.gle.sale,gle_crm.model_gle_crm_ca_current_year,gle_sales_group_user,1,1,1,0

access_gle_read_group_ca_last_year,access.gle.crm.ca.last.year.read,gle_crm.model_gle_crm_ca_last_year,gle_read_group,1,1,1,0
access_ca_last_year_gle_sale,access.gle.crm.ca.last.year.gle.sale,gle_crm.model_gle_crm_ca_last_year,gle_sales_group_user,1,1,1,0

access_gle_read_group_status_partner_models,access.gle.crm.status.partner.models.read,gle_crm.model_gle_crm_status_partner_models,gle_read_group,1,0,0,0

access_gle_read_group_ca_before_year,access.gle.crm.ca.before.year.read,gle_crm.model_gle_crm_ca_before_year,gle_read_group,1,1,1,0
access_ca_before_year_gle_sale,access.gle.crm.ca.before.year.gle.sale,gle_crm.model_gle_crm_ca_before_year,gle_sales_group_user,1,1,1,0

access_gle_read_group_ca_before_before_year,access.gle.crm.ca.before.before.year.read,gle_crm.model_gle_crm_ca_before_before_year,gle_read_group,1,1,1,0
access_ca_before_before_year_gle_sale,access.gle.crm.ca.before.before.year.gle.sale,gle_crm.model_gle_crm_ca_before_before_year,gle_sales_group_user,1,1,1,0

access_gle_read_group_gle_product_extended_type_article_echos,access.gle.product.extended.type.article.echos.read,gle_product_extended.model_gle_product_extended_type_article_echos,gle_read_group,1,0,0,0

access_gle_read_group_angle,access.gle.salon.angle.read,gle_salon.model_gle_salon_angle,gle_read_group,1,0,0,0
access_angle_prd200,access.gle.salon.angle.prd200,gle_salon.model_gle_salon_angle,prd200_group,1,1,1,0

access_gle_read_group_millesime,access.gle.salon.millesime.read,gle_salon.model_gle_salon_millesime,gle_read_group,1,0,0,0



access_group_village_prd200,access.gle.salon.village.prd200,gle_salon.model_gle_salon_village,prd200_group,1,1,1,0

access_gle_read_group_salon,access.gle.salon.salon.read,gle_salon.model_gle_salon_salon,gle_read_group,1,0,0,0

access_gle_read_group_stand,access.gle.salon.stand.read,gle_salon.model_gle_salon_stand,gle_read_group,1,0,0,0
access_group_stand_gle_reservation,access.gle.salon.stand.gle.reservation,gle_salon.model_gle_salon_stand,gle_reservation_group_user,1,1,0,0
access_gle_reservation_prd200,access.gle.salon.stand.prd200,gle_salon.model_gle_salon_stand,prd200_group,1,1,1,1
access_gle_stand_sde630,access.gle.salon.stand.sde630,gle_salon.model_gle_salon_stand,sde630_group,1,1,0,0

access_gle_read_group_village,access.gle.salon.village.read,gle_salon.model_gle_salon_village,gle_read_group,1,0,0,0
access_group_village_prd200,access.gle.salon.village.prd200,gle_salon.model_gle_salon_village,prd200_group,1,1,1,0

access_gle_read_group_produit,access.gle.salon.produit.read,gle_salon.model_gle_salon_produit,gle_read_group,1,0,0,0

access_gle_read_group_stand_type,access.gle.salon.stand.type.read,gle_salon.model_gle_salon_stand_type,gle_read_group,1,0,0,0
access_stand_type_prd200,access.gle.salon.stand.type.prd200,gle_salon.model_gle_salon_stand_type,prd200_group,1,1,1,0

access_gle_read_group_enseigne,access.gle.salon.enseigne.read,gle_salon.model_gle_salon_enseigne,gle_read_group,1,0,0,0


access_gle_read_group_salon_standfull,access.gle.salon.standfull.read,gle_salon.model_gle_salon_standfull,gle_read_group,1,1,0,0
access_salon_standfull_sd600,sd600.gle.salon.standfull.sd600,gle_salon.model_gle_salon_standfull,sde600_group,1,1,0,0
access_salon_standfull_prd200,gle.salon.standfull.prd200,gle_salon.model_gle_salon_standfull,prd200_group,1,1,1,0


access_gle_read_group_salon_villagefull,access.gle.salon.villagefull.read,gle_salon.model_gle_salon_villagefull,gle_read_group,1,0,0,0
access_salon_villagefull_prd200,access.gle.salon.villagefull.prd200,gle_salon.model_gle_salon_villagefull,prd200_group,1,1,1,0



access_gle_read_group_product_marketing,access.gle.products.product.marketing.read,gle_products.model_gle_products_product_marketing,gle_read_group,1,0,0,0
access_group_product_marketing_gle_reservation,access.gle.products.product.marketing.gle.reservation,gle_products.model_gle_products_product_marketing,gle_reservation_group_user,1,1,0,0
access_group_product_marketing_gle_product_manager,access.gle.products.product.marketing.product.manager,gle_products.model_gle_products_product_marketing,gle_product_group_manager,1,1,1,1

access_gle_read_group_product_workshop,access.gle.products.product.workshop.read,gle_products.model_gle_products_product_workshop,gle_read_group,1,0,0,0
access_group_product_workshop_gle_reservation,access.gle.products.product.workshop.gle.reservation,gle_products.model_gle_products_product_workshop,gle_reservation_group_user,1,1,0,0
access_group_product_workshop_gle_product_manager,access.gle.products.product.workshop.product.manager,gle_products.model_gle_products_product_workshop,gle_product_group_manager,1,1,1,1

access_gle_read_group_product_marketing_category,access.gle.products.product.marketing.category.read,gle_products.model_gle_products_product_marketing_category,gle_read_group,1,0,0,0
access_product_marketing_category_product_manager,access.gle.products.product.marketing.category.product.manager,gle_products.model_gle_products_product_marketing_category,gle_product_group_manager,1,1,1,0

access_gle_read_group_product_workshop_category,access.gle.products.product.workshop.category.read,gle_products.model_gle_products_product_workshop_category,gle_read_group,1,0,0,0
access_product_workshop_category_product_manager,access.gle.products.product.workshop.category.product.manager,gle_products.model_gle_products_product_workshop_category,gle_product_group_manager,1,1,1,0



access_gle_read_group_salon_reservation,access.gle.reservation.salon.read,gle_reservation_salon.model_gle_reservation_salon_reservation_salon,gle_read_group,1,0,0,0
access_salon_gle_reservation,access.gle.reservation.salon.gle.reservation,gle_reservation_salon.model_gle_reservation_salon_reservation_salon,gle_reservation_group_user,1,1,1,1

access_gle_read_group_reservation_markting_tree,access.gle.reservation.markting.tree.read,gle_reservation_salon.model_gle_reservation_salon_reservation_marketing_tree,gle_read_group,1,0,0,0
access_reservation_markting_tree_gle_reservation,access.gle.reservation.markting.tree.gle.reservation,gle_reservation_salon.model_gle_reservation_salon_reservation_marketing_tree,gle_reservation_group_user,1,1,0,0

access_gle_read_group_reservation_workshop_tree,access.gle.reservation.workshop.tree.read,gle_reservation_salon.model_gle_reservation_salon_reservation_workshop_tree,gle_read_group,1,0,0,0
access_reservation_workshop_tree_gle_reservation,access.gle.reservation.workshop.tree.gle.reservation,gle_reservation_salon.model_gle_reservation_salon_reservation_workshop_tree,gle_reservation_group_user,1,1,0,0

access_gle_read_group_reservation_stand_tree,access.gle.reservation.stand.tree.read,gle_reservation_salon.model_gle_reservation_salon_reservation_stand_tree,gle_read_group,1,0,0,0
access_reservation_stand_tree_gle_reservation,access.gle.reservation.stand.tree.gle.reservation,gle_reservation_salon.model_gle_reservation_salon_reservation_stand_tree,gle_reservation_group_user,1,1,0,0



access_gle_read_group_gle_account_refund,access.gle.account.refund.read,gle_accounting.model_gle_account_refund,gle_read_group,1,0,0,0
access_gle_read_group_gle_account_refund_line_all,access.gle.account.refund.line.read,gle_accounting.model_gle_account_refund_line,gle_read_group,1,0,0,0

access_gle_read_group_gle_account_refund_to_receive,access.gle.account.refund.to.receive.read,gle_accounting.model_gle_refund_to_receive,gle_read_group,1,0,0,0
access_gle_read_group_gle_account_refund_to_receive_line,access.gle.account.refund.to.receive.line.read,gle_accounting.model_gle_refund_to_receive_line,gle_read_group,1,0,0,0



access_gle_read_group_product_pricelist,access.product.pricelist.read,product.model_product_pricelist,gle_read_group,1,0,0,0

access_gle_read_group_ir_attachment,access.ir.attachment.read,base.model_ir_attachment,gle_read_group,1,0,0,0
"access_ir_attachment_group_user","ir_attachment group_user","base.model_ir_attachment","base.group_user",1,1,1,0
access_adv_group_ir_attachment,access.ir.attachment.adv,base.model_ir_attachment,adv_group,1,1,1,0

access_gle_read_group_account_invoice_tax,account_invoice_tax.read,account.model_account_invoice_tax,gle_read_group,1,0,0,0

access_gle_read_group_res_partner_info,access.res.partner.info.read,partner_unique_id.model_res_partner_info,gle_read_group,1,0,0,0


access_gle_read_group_gle_profile_type,access.gle.profile.type.read,gle_suivi_charges_ca.model_profile_type,gle_read_group,1,0,0,0

access_gle_read_group_gle_tableau_suivi_ch_ca,access.gle.tableau.suivi.ch.ca.read,gle_suivi_charges_ca.model_gle_tableau_suivi_ch_ca,gle_read_group,1,0,0,0
access_gle_tableau_suivi_ch_ca_gle_purchase,access.gle.tableau.suivi.ch.ca.gle.purchase,gle_suivi_charges_ca.model_gle_tableau_suivi_ch_ca,gle_purchase_group_user,1,1,0,0

access_gle_read_group_gle_tableau_suivi_ch_ca_line,access.gle.tableau.suivi.ch.ca.line.read,gle_suivi_charges_ca.model_gle_suivi_ch_ca_line,gle_read_group,1,0,0,0
access_gle_tableau_suivi_ch_ca_line_gle_purchase,access.gle.tableau.suivi.ch.ca.line.gle.purchase,gle_suivi_charges_ca.model_gle_suivi_ch_ca_line,gle_purchase_group_user,1,1,1,0

access_gle_read_group_gle_nature,access.gle.nature.read,gle_suivi_charges_ca.model_gle_nature,gle_read_group,1,0,0,0



access_gle_read_group_gle_prestation,access.gle.prestation,gle_suivi_charges_ca.model_gle_prestation,gle_read_group,1,0,0,0

access_gle_read_group_gle_section,access.gle.section.read,gle_suivi_charges_ca.model_gle_section,gle_read_group,1,0,0,0

access_gle_read_group_gle_type,access.gle.type.read,gle_suivi_charges_ca.model_gle_type,gle_read_group,1,0,0,0


access_gle_read_group_crm_action,access.crm.action.read,crm_action.model_crm_action,gle_read_group,1,0,0,0
access_gle_read_group_crm_action_type,access.crm.action.type.read,crm_action.model_crm_action_type,gle_read_group,1,0,0,0


access_crm_action_prd200_chief_service,crm.action.prd200.chief.service,crm_action.model_crm_action,prd200_chief_service,1,1,1,1
access_crm_action_type_prd200_chief_service,crm.action.type.prd200.chief.service,crm_action.model_crm_action_type,prd200_chief_service,1,1,1,1
access_purchase_tracker_prd200_chief_service,purchase.tracker.prd200.chief.service,purchase_tracker.model_purchase_tracker_tracker,prd200_chief_service,1,0,0,0
access_purchase_tracker_sde600_chief_service,purchase.tracker.sde600.chief.service,purchase_tracker.model_purchase_tracker_tracker,sde600_chief_service,1,0,0,0
access_purchase_tracker_sde210_chief_service,purchase.tracker.sde210.chief.service,purchase_tracker.model_purchase_tracker_tracker,prd210_chief_service,1,1,1,0
access_purchase_tracker_sde210_chief_service,purchase.tracker.sde210.chief.service,purchase_tracker.model_purchase_tracker_tracker,mkd400_chief_service,1,1,1,0

access_purchase_tracker_read,purchase.tracker.reade,purchase_tracker.model_purchase_tracker_tracker,gle_read_group,1,0,0,0
access_purchase_tracker_line_read,purchase.tracker.line.reade,purchase_tracker.model_purchase_tracker_tracker_line,gle_read_group,1,0,0,0

access_account_invoice_prd200_chief_service,account.invoice.prd200.chief.service,account.model_account_invoice,prd200_chief_service,1,1,0,0
access_account_invoice_sde600_chief_service,account.invoice.sde600.chief.service,account.model_account_invoice,sde600_chief_service,1,1,0,0
access_account_invoice_dgm620_bu_direction,account.invoice.dgm620.bu.direction,account.model_account_invoice,dgm620_bu_direction,1,1,0,0

access_account_invoice_line_dgm620_bu_direction,account.invoice.line.dgm620.bu.direction,account.model_account_invoice_line,dgm620_bu_direction,1,1,0,0

access_crm_action_prd210_chief_service,crm.action.prd210.chief.service,crm_action.model_crm_action,prd210_chief_service,1,1,1,1
access_crm_action_type_prd210_chief_service,crm.action.type.prd210.chief.service,crm_action.model_crm_action_type,prd210_chief_service,1,1,1,1

access_crm_action_cmd410_chief_service,crm.action.cmd410.chief.service,crm_action.model_crm_action,cmd410_chief_service,1,1,1,1
access_crm_action_type_cmd410_chief_service,crm.action.type.cmd410.chief.service,crm_action.model_crm_action_type,cmd410_chief_service,1,1,1,1

access_crm_action_mkd400_chief_service,crm.action.mkd400.chief.service,crm_action.model_crm_action,mkd400_chief_service,1,1,1,1
access_crm_action_type_mkd400_chief_service,crm.action.type.mkd400.chief.service,crm_action.model_crm_action_type,mkd400_chief_service,1,1,1,1

access_crm_action_sde600_group,crm.action.sde600.group,crm_action.model_crm_action,sde600_group,1,1,1,1
access_crm_action_type_sde600_group,crm.action.type.sde600.group,crm_action.model_crm_action_type,sde600_group,1,1,1,1

access_crm_action_sde610_group,crm.action.sde610.group,crm_action.model_crm_action,sde610_group,1,1,1,1
access_crm_action_type_sde610_group,crm.action.type.sde610.group,crm_action.model_crm_action_type,sde610_group,1,1,1,1




access_gle_read_group_account_invoice,access.account.invoice.read,account.model_account_invoice,gle_read_group,1,0,0,0
access_account_invoice_gle_account,access.account.invoice.gle.account,account.model_account_invoice,gle_account_group_user,1,1,0,0

access_gle_read_group_account_invoice_line,access.account.invoice.line.read,account.model_account_invoice_line,gle_read_group,1,0,0,0
access_account_invoice_line_gle_account,access.account.invoice.line.gle.account,account.model_account_invoice_line,gle_account_group_user,1,1,1,1

access_res_company_gle_account,access.res.company.gle.account,base.model_res_company,gle_account_group_user,1,1,0,0

access_sale_order_gle_sale,sale.order.gle.sale,sale.model_sale_order,gle_sales_group_user,1,1,1,0
access_sale_order_gle_sale_dgm620,sale.order.gle.sale,sale.model_sale_order,dgm620_group,1,1,1,0
access_gle_read_group_sale_order,sale.order.gle.read.group,sale.model_sale_order,gle_read_group,1,0,0,0

access_sale_order_line_gle_sale,sale.order.line.gle.sale,sale.model_sale_order_line,gle_sales_group_user,1,1,1,1
access_sale_order_line_gle_sale_dgm620,sale.order.line.gle.sale,sale.model_sale_order_line,dgm620_group,1,1,1,1
access_gle_read_group_sale_order_line,sale.order.line.gle.read.group,sale.model_sale_order_line,gle_read_group,1,0,0,0

access_account_invoice_tax_gle_sale,account_invoice_tax.gle.sale,account.model_account_invoice_tax,gle_sales_group_user,1,1,1,0

access_sale_report_gle_sale,sale.report.gle_sale,sale.model_sale_report,gle_sales_group_user,1,1,1,0

access_ir_property_sales_gle_sale,ir.property.sales.gle.sale,base.model_ir_property,gle_sales_group_user,1,1,1,1

access_gle_read_group_sale_account_journal,account.journal sale order.read,account.model_account_journal,gle_read_group,1,0,0,0

access_gle_read_group_product_template_gle_sale,product.template gle.read.group,product.model_product_template,gle_read_group,1,0,0,0

access_gle_read_group_product_product,product.product gle.read.group,product.model_product_product,gle_read_group,1,0,0,0
access_adv_product_product,access.adv.product.product,product.model_product_product,adv_group,1,1,1,0
access_adv_product_price_history,access.adv.product.price.history,product.model_product_price_history,adv_group,1,1,1,0

access_gle_read_group_product_category,product.category gle.read.group,product.model_product_category,gle_read_group,1,0,0,0

access_account_fiscalyear_gle_sale,account.fiscalyear.gle.sale,account.model_account_fiscalyear,gle_sales_group_user,1,0,0,0

access_account_tax_gle_sale,account.tax.gle.sale,account.model_account_tax,gle_sales_group_user,1,0,0,0

access_res_partner_bank_type_gle_sale,res.partner.bank.type.gle.sale,base.model_res_partner_bank_type,gle_sales_group_user,1,0,0,0

access_res_partner_bank_type_field_gle_sale,res.partner.bank.type.field.gle.sale,base.model_res_partner_bank_type_field,gle_sales_group_user,1,0,0,0

access_gle_read_group_product_uom,product.uom.gle.read,product.model_product_uom,gle_read_group,1,0,0,0

access_account_account_gle_sale,account_account gle.sale,account.model_account_account,gle_sales_group_user,1,0,0,0
access_gle_read_group_account_account,account.account.read,account.model_account_account,gle_read_group,1,0,0,0

access_product_supplierinfo_gle_sale,product.supplierinfo.gle.sale,product.model_product_supplierinfo,gle_sales_group_user,1,0,0,0

access_account_invoice_report_gle_sale,account.invoice.report gle.sale,account.model_account_invoice_report,gle_sales_group_user,1,0,0,0

access_account_move_line_gle_sale,account.move.line gle.sale,account.model_account_move_line,gle_sales_group_user,1,0,0,0

access_gle_sales_group_user_group_status_partner_models,access.gle.crm.status.partner.models.sale,gle_crm.model_gle_crm_status_partner_models,gle_sales_group_user,1,1,1,1
access_regie_externe_status_partner_models,access.gle.crm.status.partner.regie.externe,gle_crm.model_gle_crm_status_partner_models,sde630_group,1,1,1,1


access_crm_lead_gle_sale,crm.lead.gle.sale,crm.model_crm_lead,gle_sales_group_user,1,1,1,1
access_gle_sde610_group_crm_lead,crm.lead.gle.sde610_group.group,crm.model_crm_lead,sde610_group,1,1,1,0



access_crm_lead_gle_sale,crm.lead.gle.sale,crm.model_crm_lead,gle_sales_group_user,1,1,1,1

access_crm_lead_gle_daf_group,crm.lead.gle.daf.group,crm.model_crm_lead,gle_daf_group,1,0,0,0
access_crm_lead_gle_controle_gestion_group,crm.lead.gle.controle.gestion.group,crm.model_crm_lead,gle_controle_gestion_group,1,0,0,0
access_crm_lead_gle_controle_group,crm.lead.gle.controle.group,crm.model_crm_lead,gle_controle_group,1,0,0,0



access_res_partner_gle_sale,res.partner.crm.gle.sale,base.model_res_partner,gle_sales_group_user,1,1,1,0
access_res_partner_gle_sale_dgm620,res.partner.crm.gle.sale,base.model_res_partner,dgm620_group,1,1,1,0
access_gle_read_group_res_partner,res.partner.read,base.model_res_partner,gle_read_group,1,0,0,0
access_res_partner_gle_account,res.partner.gle.account,base.model_res_partner,gle_account_customer_group,1,1,1,0

access_crm_segmentation_gle_sale,crm.segmentation.gle.sale,crm.model_crm_segmentation,gle_sales_group_user,1,1,1,0

access_crm_segmentation_line_gle_sale,crm.segmentation.line.gle.sale,crm.model_crm_segmentation_line,gle_sales_group_user,1,1,1,1

access_crm_tracking_medium_gle_sale,crm.tracking.medium.gle.sale,crm.model_crm_tracking_medium,gle_sales_group_user,1,0,0,0

access_crm_tracking_source_gle_sale,crm.tracking.source.gle.sale,crm.model_crm_tracking_source,gle_sales_group_user,1,0,0,0
access_crm_tracking_source_gle_sale_manager,crm.tracking.source.sale.manager,crm.model_crm_tracking_source,gle_sales_group_manager,1,1,1,1

access_crm_case_categ_gle_sale,crm.case.categ.gle.sale,crm.model_crm_case_categ,gle_sales_group_user,1,0,0,0
access_crm_case_categ_gle_sale_manager,crm.case.categ.sale.manager,crm.model_crm_case_categ,gle_sales_group_manager,1,1,1,1

access_crm_phonecall_sd600,crm.phonecall.sd600,crm.model_crm_phonecall,sde600_group,1,1,1,1
access_gle_read_group_crm_phonecall,crm.phonecall.read,crm.model_crm_phonecall,gle_read_group,1,0,0,0

access_crm_tracking_campaign_gle_sale,crm_tracking_campaign.gle.sale,crm.model_crm_tracking_campaign,gle_sales_group_user,1,1,1,0
access_crm_tracking_campaign_gle_sale_manager,crm_tracking_campaign.sale.manager,crm.model_crm_tracking_campaign,gle_sales_group_manager,1,1,1,1

access_crm_phonecall_report_gle_sale,crm.phonecall.report.gle.sale,crm.model_crm_phonecall_report,gle_sales_group_user,1,0,0,1

access_crm_opportunity_report_gle_sale,crm.opportunity.report.gle.sale,crm.model_crm_opportunity_report,gle_sales_group_user,1,0,0,0

access_res_partner_category_gle_sale,res.partner.category.crm.gle.sale,base.model_res_partner_category,gle_sales_group_user,1,0,0,0
access_res_partner_category_gle_sale_manager,res.partner.category.crm.sale.manager,base.model_res_partner_category,gle_sales_group_manager,1,1,1,1

mail_mailgate_thread_gle_sale,mail.thread.gle.sale,mail.model_mail_thread,gle_sales_group_user,1,1,1,1

access_crm_lead_report_user,crm.lead.report user,crm.model_crm_lead_report,gle_sales_group_user,1,1,1,1

access_res_partner_bank_type_crm_gle_sale,res.partner.bank.type.crm.gle.sale,base.model_res_partner_bank_type,gle_sales_group_user,1,0,0,0

access_crm_payment_mode_gle_read_group,crm.payment.mode.gle.read,crm.model_crm_payment_mode,gle_read_group,1,0,0,0
access_crm_payment_mode_gle_sale,crm.payment.mode.gle.sale,crm.model_crm_payment_mode,gle_sales_group_user,1,0,0,0
access_crm_payment_mode_gle_sale_dgm620,crm.payment.mode.gle.sale,crm.model_crm_payment_mode,dgm620_group,1,0,0,0
access_crm_payment_mode_gle_sale_cg,crm.payment.mode.gle.sale,crm.model_crm_payment_mode,cg_group,1,0,0,0
access_crm_payment_mode_gle_sale_manager,crm.payment.mode.sale.manager,crm.model_crm_payment_mode,gle_sales_group_manager,1,1,1,1
access_crm_payment_mode_gle_account,crm.payment.mode.account,account_payment.model_payment_mode,gle_account_group_user,1,0,0,0

access_crm_payment_order_gle_account,crm.payment.order.account,account_payment.model_payment_order,gle_account_group_user,1,0,0,0

access_crm_payment_line_gle_account,crm.payment.order.account,account_payment.model_payment_line,gle_account_group_user,1,0,0,0

access_crm_make_sale_gle_sale,crm.make.sale.gle.sale,sale_crm.model_crm_make_sale,gle_sales_group_user,1,1,1,1

access_crm_case_stage_gle_sale,crm.case.stage.gle.sale,crm.model_crm_case_stage,gle_sales_group_user,1,0,0,0
access_crm_case_stage_gle_sale_manager,crm.case.stage.sale.manager,crm.model_crm_case_stage,gle_sales_group_manager,1,1,1,1



access_model_super_calendar_configurator_sd600_chief,access_model_super_calendar_configurator_sd600_chief,super_calendar.model_super_calendar_configurator,sde600_chief_service,1,1,1,0
access_model_super_calendar_configurator_line_sd600_chief,access_model_super_calendar_configurator_line_sd600_chief,super_calendar.model_super_calendar_configurator_line,sde600_chief_service,1,1,1,0



access_purchase_order_gle_purchase,purchase.purchase.gle.sale,purchase.model_purchase_order,gle_purchase_group_user,1,1,1,0
access_purchase_order_line_gle_purchase,purchase.order.line.gle.purchase,purchase.model_purchase_order_line,gle_purchase_group_user,1,1,1,1

access_account_invoice_gle_purchase,account.invoice.gle.sale,account.model_account_invoice,gle_purchase_group_user,1,1,0,0
access_account_invoice_line_line_gle_purchase,account.invoice.line.gle.purchase,account.model_account_invoice_line,gle_purchase_group_user,1,1,0,0


access_purchase_order_gle_account,purchase.purchase.gle.acccount,purchase.model_purchase_order,gle_account_group_user,1,0,0,0
access_purchase_order_account_supplier,purchase.order.acccount.supplier,purchase.model_purchase_order,gle_account_supplier_group,1,1,0,0


access_purchase_order_line_gle_account,purchase.purchase.line.gle.acccount,purchase.model_purchase_order_line,gle_account_group_user,1,0,0,0
access_purchase_order_line_account_supplier,purchase.order.line.acccount.supplier,purchase.model_purchase_order_line,gle_account_supplier_group,1,1,0,0

access_read_purchase_order,purchase.order.read,purchase.model_purchase_order,gle_read_group,1,0,0,0
access_read_purchase_order_line,purchase.order.line.read,purchase.model_purchase_order_line,gle_read_group,1,0,0,0

access_stock_location_purchase_gle_purchase,stock.location.gle.purchase,stock.model_stock_location,gle_purchase_group_user,1,0,0,0

access_stock_warehouse_purchase_gle_purchase,stock.warehouse.gle.purchase,stock.model_stock_warehouse,gle_purchase_group_user,1,0,0,0

access_stock_picking_purchase_gle_purchase,stock.picking.gle.purchase,stock.model_stock_picking,gle_purchase_group_user,1,1,1,1

access_stock_move_purchase_gle_purchase,stock.move.gle.purchase,stock.model_stock_move,gle_purchase_group_user,1,1,1,0
access_gle_read_group_stock_move_purchase,stock.move.read,stock.model_stock_move,gle_read_group,1,0,0,0

access_account_tax_purchase_gle_purchase,account.tax.gle.purchase,account.model_account_tax,gle_purchase_group_user,1,0,0,0

access_report_purchase_order_gle_purchase,purchase.report.gle.purchase,purchase.model_purchase_report,gle_purchase_group_user,1,0,0,0


access_account_fiscal_position_purchase_gle_purchase,account.fiscal.position.gle.purchase,account.model_account_fiscal_position,gle_purchase_group_user,1,0,0,0

access_account_sequence_fiscalyear_purchase_gle_purchase,account.sequence.fiscalyear.gle.purchase,account.model_account_sequence_fiscalyear,gle_purchase_group_user,1,1,1,1

access_account_journal_period_gle_purchase,account.journal.period.gle.purchase,account.model_account_journal_period,gle_purchase_group_user,1,1,1,0

access_account_journal_gle_purchase,account.journal.gle.purchase,account.model_account_journal,gle_purchase_group_user,1,0,0,0

access_account_period,account.period,account.model_account_period,gle_read_group,1,0,0,0

access_account_fiscalyear,account.fiscalyear,account.model_account_fiscalyear,gle_purchase_group_user,1,0,0,0
access_account_fiscalyear,account.fiscalyear,account.model_account_fiscalyear,gle_purchase_group_user,1,0,0,0



access_account_move,account.move,account.model_account_move,gle_purchase_group_user,1,0,0,0
access_gle_read_group_account_move,account.move.read,account.model_account_move,gle_read_group,1,0,0,0
access_account_move_gle_account,account.move.gle.account,account.model_account_move,gle_account_group_user,1,1,1,0

access_account_move_line,account.move.line,account.model_account_move_line,gle_purchase_group_user,1,0,0,0
access_gle_read_group_account_move_line,account.move.line.read,account.model_account_move_line,gle_read_group,1,0,0,0
access_account_move_line_gle_account,account.move.line.gle.account,account.model_account_move_line,gle_account_group_user,1,1,1,1

access_account_analytic_line,account.analytic.line,account.model_account_analytic_line,gle_purchase_group_user,1,0,0,0

access_account_followup_print_gle_account,account.followup.print.gle.account,account_followup.model_account_followup_print,gle_account_group_user,1,1,1,0

access_account_followup_stat_by_partner_gle_account,account.followup.stat.by.partner.gle.account,account_followup.model_account_followup_stat_by_partner,gle_account_group_user,1,1,1,0

access_account_move_line,account.move.line,account.model_account_move_line,gle_purchase_group_user,1,1,1,0

access_purchase_tracker_gle_account,access.purchase.tracker.gle.account,purchase_tracker.model_purchase_tracker_tracker,gle_account_group_user,1,0,0,0
access_purchase_tracker_gle_account_supplier,access.purchase.tracker.gle.account.supplier,purchase_tracker.model_purchase_tracker_tracker,gle_account_supplier_group,1,1,1,0

access_purchase_tracker_line_gle_account,access.purchase.tracker.line.gle.account,purchase_tracker.model_purchase_tracker_tracker_line,gle_account_group_user,1,0,0,0
access_purchase_tracker_line_gle_account_supplier,access.purchase.tracker.line.gle.account.supplier,purchase_tracker.model_purchase_tracker_tracker_line,gle_account_supplier_group,1,1,1,1


access_sale_invoice_bank_tracker_gle_purchase,access.sale.invoice.bank.tracker.gle.account,sale_invoice_bank_payment.model_sale_invoice_bank_tracker,gle_account_group_user,1,1,1,0

access_sale_invoice_bank_tracker_line_gle_purchase,access.sale.invoice.bank.tracker.line.gle.account,sale_invoice_bank_payment.model_sale_invoice_bank_tracker_line,gle_account_group_user,1,1,1,1

access_sale_invoice_check_tracker_gle_purchase,access.sale.invoice.check.tracker.gle.account,sale_invoice_check_payment.model_sale_invoice_check_tracker,gle_account_group_user,1,1,1,0

access_sale_invoice_check_tracker_line_gle_purchase,access.sale.invoice.check.tracker.line.gle.account,sale_invoice_check_payment.model_sale_invoice_check_tracker_line,gle_account_group_user,1,1,1,1

access_sale_invoice_check_tracker_batch_gle_purchase,access.sale.invoice.check.tracker.batch.gle.account,sale_invoice_check_payment.model_sale_invoice_check_tracker_batch,gle_account_group_user,1,1,1,0

access_sale_invoice_check_tracker_payment_statement_gle_purchase,access.sale.invoice.check.tracker.payment.statement.gle.account,sale_invoice_check_payment.model_sale_invoice_check_tracker_payment_statement,gle_account_group_user,1,1,1,0

access_gle_read_group_sale_invoice_check_tracker_batch,access.sale.invoice.check.tracker.batch.read,account.model_account_financial_report,gle_read_group,1,0,0,0
access_sale_invoice_check_tracker_batch_gle_account,access.sale.invoice.check.tracker.batch.gle.account,account.model_account_financial_report,gle_account_supplier_group,1,1,1,0

access_gle_read_group_account_subscription,access.account.subscription.read,account.model_account_subscription,gle_read_group,1,0,0,0
access_gle_read_group_account_subscription_line,access.account.subscription.line.read,account.model_account_subscription_line,gle_read_group,1,0,0,0

access_account_followup_followup_gle_account_supplier,access.account.followup.followup.gle.account.supplier,account_followup.model_account_followup_followup,gle_account_customer_group,1,1,1,0
access_account_followup_followup_gle_account,access.account.followup.followup.gle.account,account_followup.model_account_followup_followup,gle_account_group_user,1,0,0,0

access_account_followup_followup_line_gle_account_supplier,access.account.followup.followup.line.gle.account.supplier,account_followup.model_account_followup_followup_line,gle_account_customer_group,1,1,1,1
access_account_followup_followup_line_gle_account,access.account.followup.followup.line.gle.account,account_followup.model_account_followup_followup_line,gle_account_group_user,1,0,0,0

access_account_voucher_gle_account_customer,access.account.voucher.gle.account.customer,account_voucher.model_account_voucher,gle_account_customer_group,1,1,1,0
access_account_voucher_gle_account_supplier,access.account.voucher.gle.account.supplier,account_voucher.model_account_voucher,gle_account_supplier_group,1,1,1,0
access_account_voucher_gle_account,access.account.voucher.gle.account,account_voucher.model_account_voucher,gle_account_group_user,1,0,0,0

access_account_voucher_line_gle_account_supplier,access.account.voucher.line.gle.account.supplier,account_voucher.model_account_voucher_line,gle_account_supplier_group,1,1,1,0
access_account_voucher_line_gle_account_customer,access.account.voucher.line.gle.account.customer,account_voucher.model_account_voucher_line,gle_account_customer_group,1,1,1,1
access_account_voucher_line_gle_account,access.account.voucher.line.gle.account,account_voucher.model_account_voucher_line,gle_account_group_user,1,0,0,0


access_adv_group_salon_millesime,access.adv.group.salon.millesime,gle_salon.model_gle_salon_millesime,adv_group,1,1,1,0
access_adv_group_salon_salon,access.adv.group.salon.salon,gle_salon.model_gle_salon_salon,adv_group,1,1,1,0
access_sde610_group_salon_salon,access.sde610.group.salon.salon,gle_salon.model_gle_salon_salon,sde610_group,1,1,1,0
access_adv_group_salon_stand,access.adv.group.salon.stand,gle_salon.model_gle_salon_stand,adv_group,1,1,0,0
access_adv_group_salon_standfull,access.adv.group.salon.standfull,gle_salon.model_gle_salon_standfull,adv_group,1,1,0,0
access_adv_group_salon_produit,access.adv.group.salon.produit,gle_salon.model_gle_salon_produit,adv_group,1,1,1,0
access_adv_group_salon_enseigne,access.adv.group.salon.enseigne,gle_salon.model_gle_salon_enseigne,adv_group,1,1,1,1
access_adv_group_res_partner_streamline,access.adv.res.partner.streamline,account_streamline.model_res_partner,adv_group,1,1,1,1

access_adv_group_crm_action,access.adv.crm.action,crm_action.model_crm_action,adv_group,1,0,0,0
access_adv_group_crm_action_type,access.adv.action.type.gle.sale,crm_action.model_crm_action_type,adv_group,1,1,1,0

access_adv_group_res_partner_info,access.adv.res.partner.info,partner_unique_id.model_res_partner_info,adv_group,1,1,1,0


access_adv_group_purchase_tracker,access.adv.group.purchase.tracker,purchase_tracker.model_purchase_tracker_tracker,adv_group,1,1,1,1
access_adv_group_purchase_tracker_line,access.adv.group.purchase.tracker.line,purchase_tracker.model_purchase_tracker_tracker_line,adv_group,1,1,1,1

access_adv_group_reservation_stand_tree_gle_reservation,access.adv.group.gle.reservation.stand.tree.gle.reservation,gle_reservation_salon.model_gle_reservation_salon_reservation_stand_tree,adv_group,1,1,1,0
access_adv_group_reservation_markting_tree_gle_reservation,access.adv.group.gle.reservation.markting.tree.gle.reservation,gle_reservation_salon.model_gle_reservation_salon_reservation_marketing_tree,adv_group,1,1,1,0
access_adv_group_reservation_workshop_tree_gle_reservation,access.adv.group.gle.reservation.workshop.tree.gle.reservation,gle_reservation_salon.model_gle_reservation_salon_reservation_workshop_tree,adv_group,1,1,1,0


access_sde610_group_reservation_stand_tree_gle_reservation,access.sde610.group.gle.reservation.stand.tree.gle.reservation,gle_reservation_salon.model_gle_reservation_salon_reservation_stand_tree,sde610_group,1,1,1,0
access_sde610_group_reservation_markting_tree_gle_reservation,access.sde610.group.gle.reservation.markting.tree.gle.reservation,gle_reservation_salon.model_gle_reservation_salon_reservation_marketing_tree,sde610_group,1,1,1,0
access_sde610_group_reservation_workshop_tree_gle_reservation,access.sde610.group.gle.reservation.workshop.tree.gle.reservation,gle_reservation_salon.model_gle_reservation_salon_reservation_workshop_tree,sde610_group,1,1,1,0


access_adv_crm_lead,access.adv.group.crm.lead,crm.model_crm_lead,adv_group,1,0,0,0

access_adv_gle_account_refund,access.adv.group.gle.account.refund.read,gle_accounting.model_gle_account_refund,adv_group,1,1,1,1
access_adv_gle_account_refund_line_all,access.adv.group.gle.account.refund.line.read,gle_accounting.model_gle_account_refund_line,adv_group,1,1,1,1
access_adv_gle_account_refund_to_receive,access.adv.group.gle.account.refund.to.receive.read,gle_accounting.model_gle_refund_to_receive,adv_group,1,1,1,0
access_adv_gle_account_refund_to_receive_line,access.adv.group.gle.account.refund.to.receive.line.read,gle_accounting.model_gle_refund_to_receive_line,adv_group,1,1,1,0

access_sde600_gle_account_refund,access.sde600.group.gle.account.refund,gle_accounting.model_gle_account_refund,sde600_chief_service,1,1,0,0
access_sde600_gle_account_refund_line_all,access.sde600.group.gle.account.refund.line,gle_accounting.model_gle_account_refund_line,sde600_chief_service,1,1,0,0

access_cg_gle_account_refund,access.cg.group.gle.account.refund,gle_accounting.model_gle_account_refund,cg_group,1,1,0,0
access_cg_gle_account_refund_line_all,access.cg.group.gle.account.refund.line,gle_accounting.model_gle_account_refund_line,cg_group,1,1,0,0

access_delegate_gle_account_refund,access.delegate.group.gle.account.refund,gle_accounting.model_gle_account_refund,delegate_users_group,1,1,0,0
access_delegate_gle_account_refund_line_all,access.delegate.group.gle.account.refund.line,gle_accounting.model_gle_account_refund_line,delegate_users_group,1,1,0,0

access_adv_sale_order_annotation,access.adv.gle.adv.sale.order.annotation.read,gle_adv.model_gle_adv_sale_order_annotation,adv_group,1,1,1,1
access_adv_gle_product_extended_type_article_echos,access.adv.group.gle.product.extended.type.article.echos,gle_product_extended.model_gle_product_extended_type_article_echos,adv_group,1,1,1,1

access_adv_centers_of_interest,access.adv.group.gle.crm.centers.of.interest,gle_crm.model_gle_crm_centers_of_interest,adv_group,1,1,1,1
access_adv_analytic_metier,access.adv.analytic.metier,gle_adv.model_gle_adv_analytic_metier,adv_group,1,1,1,1

access_adv_account_invoice,access.adv.account.invoice,account.model_account_invoice,adv_group,1,1,1,0
access_adv_account_invoice_line,access.adv.account.invoice.line,account.model_account_invoice_line,adv_group,1,1,1,0

access_adv_account_voucher,access.adv.account.voucher.gle.account.supplier,account_voucher.model_account_voucher,adv_group,1,0,0,0
access_adv_account_voucher_line,access.adv.account.voucher.line.gle.account.customer,account_voucher.model_account_voucher_line,adv_group,1,0,0,0

access_adv_gle_nature,access.adv.gle.nature,gle_suivi_charges_ca.model_gle_nature,adv_group,1,1,1,0
access_adv_gle_nature_comptable,access.adv.gle.nature.comptable,gle_suivi_charges_ca.model_gle_nature_comptable,adv_group,1,1,1,0


access_adv_gle_prestation,access.adv.gle.prestation,gle_suivi_charges_ca.model_gle_prestation,adv_group,1,1,1,0
access_adv_gle_section,access.adv.gle.section,gle_suivi_charges_ca.model_gle_section,adv_group,1,1,1,0
access_adv_gle_type,access.adv.gle.type,gle_suivi_charges_ca.model_gle_type,adv_group,1,1,1,0

access_adv_account_payment_term,access.adv.account.payment.term,gfi_payment_term_extension.model_account_payment_term,adv_group,1,1,1,0

access_adv_gle_purchase,purchase.access.adv.purchase.gle.sale,purchase.model_purchase_order,adv_group,1,1,1,0
access_adv_purchase_order_line,access.adv.purchase.order.line.gle.purchase,purchase.model_purchase_order_line,adv_group,1,1,1,0

access_adv_gle_tableau_suivi_ch_ca_gle_purchase,access.adv.gle.tableau.suivi.ch.ca.gle.purchase,gle_suivi_charges_ca.model_gle_tableau_suivi_ch_ca,adv_group,1,1,1,0
access_adv_gle_tableau_suivi_ch_ca_line_gle_purchase,access.adv.gle.tableau.suivi.ch.ca.line.gle.purchase,gle_suivi_charges_ca.model_gle_suivi_ch_ca_line,adv_group,1,1,1,0

access_adv_product_template_gle_purchase,access.adv.product.template,product.model_product_template,adv_group,1,1,1,0
access_adv_product_category,access.adv.product.category,product.model_product_category,adv_group,1,1,1,0

access_dsi_group_product_uom,product.uom.dsi.group,product.model_product_uom,dsi_group,1,1,1,1

access_sde630_group_crmleadreportingprevisional,access.sde630.group.gle.crm.crmleadreportingprevisional,gle_crm.model_gle_crm_crmleadreportingprevisional,sde630_group,1,1,0,0
access_sde610_group_crmleadreportingprevisional,access.sde610.group.gle.crm.crmleadreportingprevisional,gle_crm.model_gle_crm_crmleadreportingprevisional,sde610_group,1,1,1,1

access_payment_mode_gle_account_supplier,access.crm.payment.mode.gle.account.supplier,crm.model_crm_payment_mode,gle_account_supplier_group,1,0,0,0

access_payment_order_gle_account_supplier,access.payment.order.gle.account.supplier,account_payment.model_payment_order,gle_account_supplier_group,1,1,1,0

access_payment_line_gle_account_supplier,access.payment.line.gle.account.supplier,account_payment.model_payment_line,gle_account_supplier_group,1,1,1,1






account_voucher_sepa.sepa_batch_all_user,sepa_batch_all_user_id,account_voucher_sepa.model_account_voucher_sepa_batch,base.group_user,1,0,0,0
access_account_voucher_sepa_batch_gle_account_supplier,access.account.voucher.sepa.batch.gle.account.supplier,account_voucher_sepa.model_account_voucher_sepa_batch,gle_account_supplier_group,1,0,0,0







access_account_payment_batch_gle_account_supplier,access.account.payment.batch.gle.account.supplier,account_streamline.model_account_payment_batch,gle_account_supplier_group,1,1,1,0
access_account_payment_batch_line_gle_account_supplier,access.account.payment.batch.line.gle.account.supplier,account_streamline.model_account_payment_batch_line,gle_account_supplier_group,1,1,1,1


access_account_payment_batch_move_line_gle_account_supplier_group,access.account.payment.batch.move.line.gle.account.supplier.group,account_streamline.model_account_payment_batch_move_line,gle_account_supplier_group,1,1,1,0

access_dsi_group_account_chart_template,access.group.account.chart.template.dsi.group,account.model_account_chart_template,dsi_group,1,1,1,1
access_dsi_group_account_config_settings,access.group.account.config.settings.dsi.group,account.model_account_config_settings,dsi_group,1,1,1,1

access_gle_read_group_account_model,access.account.model.read,account.model_account_model,gle_read_group,1,0,0,0


access_account_tax_code.gle_account_gene,access.account.tax.code.gle.account.gene,account.model_account_tax_code,gle_compta_gene_group,1,1,1,0
access_account_tax.gle_account_gene,access.account.tax.gle.account.gene,account.model_account_tax,gle_compta_gene_group,1,1,0,0
access_account_journal_cashbox_line.gle_account_gene,access.account.journal.cashbox.line.gle.account.gene,account.model_account_journal_cashbox_line,gle_compta_gene_group,1,1,0,0
access_account_journal_gle_compta_gene.gle_account_gene,access.account.journal.gle.account.gene,account.model_account_journal,gle_compta_gene_group,1,1,0,0
access_res_partner_bank_gle_compta_gene,access.account.journal.cashbox.line.gle.account,base.model_res_partner_bank,gle_compta_gene_group,1,1,1,0
access_account_account_gle_compta_gene,access.account.account.gle.compta.gene,account.model_account_account,gle_compta_gene_group,1,1,0,0
access_account_fiscal_position_gle_compta_gene,access.account.fiscal.position.gle.compta.gene,account.model_account_fiscal_position,gle_compta_gene_group,1,1,0,0
access_res_partner_gle_compta_gene,access.res.partner.gle.compta.gene,base.model_res_partner,gle_compta_gene_group,1,1,0,0
access_account_period_gle_compta_gene,access.account.period.gle.compta.gene,account.model_account_period,gle_compta_gene_group,1,1,1,0
access_account_fiscal_year_gle_compta_gene,access.account.fiscal.year.gle.compta.gene,account.model_account_fiscalyear,gle_compta_gene_group,1,1,1,0


access_crm_payment_mode_gle_account_customer,crm.payment.mode.gle.account.customer,crm.model_crm_payment_mode,gle_account_customer_group,1,0,0,0
access_account_analytic_line_gle_account_customer,account.analytic.line.gle.account.customer,analytic.model_account_analytic_line,gle_account_customer_group,1,0,0,0
access_account_move_reconcile_gle_account_customer,account.move.reconcile.gle.account.customer,account.model_account_move_reconcile,gle_account_customer_group,1,1,1,0
access_sale_order_gle_account_customer,sale.order.gle.account.customer,sale.model_sale_order,gle_account_customer_group,1,1,0,0
access_sale_order_line_gle_account_customer,sale.order.line.gle.account.customer,sale.model_sale_order_line,gle_account_customer_group,1,1,0,0
access_account_invoice_tax_gle_account_customer,account.invoice.tax.gle.account.customer,account.model_account_invoice_tax,gle_account_customer_group,1,1,1,0
access_gle_suivi_ch_ca_line_gle_account_customer,gle.suivi.ch.ca.line.gle.account.customer,gle_suivi_charges_ca.model_gle_suivi_ch_ca_line,gle_account_customer_group,1,1,0,0
access_gle_tableau_suivi_ch_ca_gle_account_customer,gle.tableau.suivi.ch.ca.gle.account.customer,gle_suivi_charges_ca.model_gle_tableau_suivi_ch_ca,gle_account_customer_group,1,1,0,0

access_sde630_group_sale_order,access.sde630.sale.order.gle.sale,sale.model_sale_order,sde630_group,1,1,1,0
access_sde630_group_sale_order_line,access.sde630.sale.order.line.gle.sale,sale.model_sale_order_line,sde630_group,1,1,1,0



access_crm_payment_mode_gle_read,crm.payment.mode.gle.read,account_payment.model_payment_mode,gle_read_group,1,0,0,0

access_read_group_account_payment_term,access.gle.read.account.payment.term,gfi_payment_term_extension.model_account_payment_term,gle_read_group,1,0,0,0

access_read_group_account_payment_term,access.gle.read.account.payment.term,gfi_payment_term_extension.model_account_payment_term,gle_read_group,1,0,0,0


access_read_group_invoice_refus,access.gle.read.invoice_refus,gle_accounting.model_gle_account_invoice_refus,gle_read_group,1,1,1,1

access_read_group_account_reconcile,access.read.account.reconcile,account.model_account_move_reconcile,gle_read_group,1,0,0,0



access_account_invoice_gle_compta_gene_direction_group,account.invoice.gle.compta.gene.direction.group,account.model_account_invoice,gle_compta_gene_direction_group,1,0,0,0
access_account_invoice_line_gle_compta_gene_direction_group,account.invoice.line.gle.compta.gene.direction.group,account.model_account_invoice_line,gle_compta_gene_direction_group,1,0,0,0

access_account_payment_batch_move_line_gle_account_diection_group,access.account.payment.batch.move.line.gle.account.supplier.group,account_streamline.model_account_payment_batch_move_line,gle_compta_direction_group,1,1,1,0

access_account_voucher_gle_compta_gene_direction_group,access.account.voucher.gle.compta.gene.direction.group,account_voucher.model_account_voucher,gle_compta_gene_direction_group,1,0,0,0
access_account_voucher_line_gle_compta_gene_direction_group,access.account.voucher.line.gle.compta.gene.direction.group,account_voucher.model_account_voucher_line,gle_compta_gene_direction_group,1,0,0,0

access_account_payment_batch_gle_compta_direction_group,access.account.payment.batch.gle.compta.direction.group,account_streamline.model_account_payment_batch,gle_compta_direction_group,1,1,1,0
access_account_payment_batch_line_gle_compta_direction_group,access.account.payment.batch.line.gle.compta.direction.group,account_streamline.model_account_payment_batch_line,gle_compta_direction_group,1,1,1,0


access_account_payment_batch_gle_controle_gestion_group,access.account.payment.batch.gle.controle.gestion.group,account_streamline.model_account_payment_batch,gle_controle_gestion_group,1,1,1,0
access_account_payment_batch_line_gle_controle_gestion_group,access.account.payment.batch.line.gle.controle.gestion.group,account_streamline.model_account_payment_batch_line,gle_controle_gestion_group,1,1,1,0

access_account_move_gle_compta_gene_direction_group,account.move.gle.compta.gene.direction.group,account.model_account_move,gle_compta_gene_direction_group,1,0,0,0
access_account_move_line_gle_compta_gene_direction_group,account.move.line.gle.compta.gene.direction.group,account.model_account_move_line,gle_compta_gene_direction_group,1,0,0,0

access_crm_payment_mode_gle_compta_gene_direction_group,crm.payment.mode.gle.compta.gene.direction.group,crm.model_crm_payment_mode,gle_compta_gene_direction_group,1,0,0,0

access_crm_payment_order_gle_compta_gene_direction_group,crm.payment.order.account.gle.compta.gene.direction.group,account_payment.model_payment_order,gle_compta_gene_direction_group,1,0,0,0

access_account_voucher_sepa_gle_compta_direction_group,access.account.voucher.sepa.gle.compta.direction.group,account_voucher_sepa.model_account_voucher_sepa_batch,gle_compta_direction_group,1,1,1,0

access_account_credit_transfer_parser_gle_compta_direction_group,access.account.credit.transfer.parser.gle.compta.direction.group,account_credit_transfer.model_account_credit_transfer_parser,gle_compta_direction_group,1,0,0,0

access_account_voucher_gle_compta_direction_group,access.account.voucher.gle.compta.direction.group,account_voucher.model_account_voucher,gle_compta_direction_group,1,1,0,0
access_account_voucher_line_gle_compta_direction_group,access.account.voucher.line.gle.compta.direction.group,account_voucher.model_account_voucher_line,gle_compta_direction_group,1,1,0,0

access_account_payment_batch_gle_daf_group_group,access.account.payment.batch.gle.daf.group.group,account_streamline.model_account_payment_batch,gle_daf_group,1,0,0,0
access_account_payment_batch_line_gle_daf_group_group,access.account.payment.batch.line.gle.daf.group,account_streamline.model_account_payment_batch_line,gle_daf_group,1,0,0,0
